[gd_scene load_steps=3 format=2]

[ext_resource path="res://Ceiling.gd" type="Script" id=1]

[sub_resource type="RectangleShape2D" id=1]
extents = Vector2( 540, 100 )

[node name="Ceiling" type="StaticBody2D"]
script = ExtResource( 1 )

[node name="CollisionShape2D" type="CollisionShape2D" parent="."]
position = Vector2( 0, -1.36038 )
shape = SubResource( 1 )
